## Interface: 50400
## Title: |cffffffffReal|r|cffbf3333UI|r
## Author: Nibelheim
## Notes: RealUI core
## Version: 8.0 r30
## SavedVariables: nibRealUIDB
## SavedVariablesPerCharacter: nibRealUICharacter
## OptionalDeps: Ace3, AceGUI-3.0-SharedMediaWidgets, Aurora, Bartender4, Grid2, Raven, SharedMedia
## X-oUF: oUFembed

Libs\Embeds.xml

Locale.xml

Core.lua
Config.lua

Core.xml
Modules.xml
HuD.xml
Config.xml
Skins.xml

Bindings.xml
