## Interface: 50300
## Title: Grid2 |cd1ff7d0aAOE Heals|r
## Notes: Display best targets for AOE Heals
## Notes-esES: Muestra los mejores objetivos para las curas de area
## Author: Michael
## Dependencies: Grid2
## DefaultState: disabled
## Version: r720
## X-Curse-Packaged-Version: r720
## X-Curse-Project-Name: Grid2
## X-Curse-Project-ID: grid2
## X-Curse-Repository-ID: wow/grid2/mainline

AoeHeals.lua
AoeHealsMapData.lua
AoeHealsOptions.lua
AoeHealsStatusRaid.lua
AoeHealsStatusParty.lua
AoeHealsStatusChain.lua
AoeHealsStatusNeighbors.lua
AoeHealsStatusHighlighter.lua
AoeHealsStatusOutgoing.lua
