## Interface: 50400
## Title: Leatrix Plus
## Notes: Version 5.4.10
## Version: 5.4.10
## Author: Leatrix
## SavedVariables: LeaPlusDB
## SavedVariablesPerCharacter: LeaPlusDC
Leatrix_Plus.lua
