﻿## Interface: 50400
## Title: Raid|cff7fff7fAchievement|r - Wotlk Dungeons
## Title-ruRU: Raid|cff7fff7fAchievement|r - Wotlk Подземелья
## Author: Shurshik
## Notes: RaidAchievement Wotlk Dungeons Module
## Notes-ruRU: Модуль RaidAchievement - Wotlk Подземелья
## Dependencies: RaidAchievement
## LoadOnDemand: 1
## SavedVariablesPerCharacter: whraspisokon
RaidAchievement_WotlkHeroics.lua
RaidAchievement_WotlkHeroicsbosses.lua
RaidAchievement_WotlkHeroics.xml