﻿## Interface: 50400
## Title: Altoholic_Achievements
## Notes: Altoholic's Achievements UI
## Author: Thaoky (EU-Marécages de Zangar)
## Version: 5.4.001
## Dependencies: Altoholic, DataStore, DataStore_Achievements, DataStore_Characters
## LoadOnDemand: 1
## X-Category: Interface Enhancements
## X-Curse-Packaged-Version: r139
## X-Curse-Project-Name: Altoholic
## X-Curse-Project-ID: altoholic
## X-Curse-Repository-ID: wow/altoholic/mainline

TabAchievements.xml
Achievements.xml
