## Interface: 50400
## Author: Starfox
## Title: Ailo
## SavedVariables: AiloDB
## OptionalDeps: Ace3, LibDBIcon-1.0, LibQTip-1.0, !ClassColors
## X-Curse-Packaged-Version: 2.9.3
## X-Curse-Project-Name: Am I locked out?
## X-Curse-Project-ID: ailo
## X-Curse-Repository-ID: wow/ailo/mainline

#@no-lib-strip@
Libs\LibStub\LibStub.lua
Libs\CallbackHandler-1.0\CallbackHandler-1.0.xml
Libs\AceAddon-3.0\AceAddon-3.0.xml
Libs\AceGUI-3.0\AceGUI-3.0.xml
Libs\AceDB-3.0\AceDB-3.0.xml
Libs\AceDBOptions-3.0\AceDBOptions-3.0.xml
Libs\AceConfig-3.0\AceConfig-3.0.xml
Libs\AceConsole-3.0\AceConsole-3.0.xml
Libs\AceEvent-3.0\AceEvent-3.0.xml
Libs\AceHook-3.0\AceHook-3.0.xml
Libs\AceLocale-3.0\AceLocale-3.0.xml
Libs\AceTimer-3.0\AceTimer-3.0.xml
Libs\LibQTip-1.0\lib.xml
#@end-no-lib-strip@
Libs\LibDataBroker-1.1\LibDataBroker-1.1.lua
#@no-lib-strip@
Libs\LibDBIcon-1.0\LibDBIcon-1.0\LibDBIcon-1.0.lua
#@end-no-lib-strip@

Localization\enUS.lua
Localization\deDE.lua
Localization\frFR.lua
Localization\esES.lua
Localization\esMX.lua
Localization\itIT.lua
Localization\ptBR.lua
Localization\koKR.lua
Localization\zhTW.lua
Localization\zhCN.lua
Localization\ruRU.lua

Ailo.lua