## Interface: 50400
## Title: Overachiever - Trade
## Version: 0.73
## Author: Tuhljin
## Notes: Trade Skills module.
## LoadOnDemand: 1
## LoadWith: Blizzard_TradeSkillUI
## Dependencies: Overachiever
## X-Child-Of: Overachiever
## X-Curse-Packaged-Version: v0.73
## X-Curse-Project-Name: Overachiever - achievement tools and tweaks
## X-Curse-Project-ID: overachiever
## X-Curse-Repository-ID: wow/overachiever/mainline

localization.lua
TradeSkills.lua