﻿## Interface: 50400
## Title: Raid|cff7fff7fAchievement|r - Ulduar
## Title-ruRU: Raid|cff7fff7fAchievement|r - Ульдуар
## Author: Shurshik
## Notes: RaidAchievement Ulduar Module
## Notes-ruRU: Модуль RaidAchievement - Ульдуар
## Dependencies: RaidAchievement
## LoadOnDemand: 1
## SavedVariablesPerCharacter: preaspisokon
RaidAchievement_Ulduar.lua
RaidAchievement_Uldabosses.lua
RaidAchievement_Ulduar.xml