## Interface: 50400
## Title: oUF
## Author: Haste
## Version: 1.6.4
## OptionalDeps: Clique
## X-eMail: troeks@gmail.com
## X-oUF: oUF
## Notes: Unit frame framework. Does nothing by itself.
## Notes-ruRU: Каркас для модификации фреймов игроков. Сам по себе не делает ничего.

oUF.xml
