﻿## Interface: 50400
## Title: Raid|cff7fff7fAchievement|r - Cataclysm raids
## Title-ruRU: Raid|cff7fff7fAchievement|r - Рейды Катаклизма
## Author: Shurshik
## Notes: RaidAchievement Cataclysm Raids Module
## Notes-ruRU: Модуль RaidAchievement - Рейды Катаклизма
## Dependencies: RaidAchievement
## LoadOnDemand: 1
## SavedVariablesPerCharacter: crraspisokon
RaidAchievement_CataRaids.lua
RaidAchievement_CataRaids.xml
RaidAchievement_CataRaidsbosses.lua