﻿## Author: Shinisuryu
## Interface: 50400 
## Notes: Enhances shift-click interface at vendors.
## Title: BuyEmAll (3.1.8)
## Version: 3.1.8
## SavedVariablesPerCharacter: BEAConfirmToggle
## LoadManagers: AddonLoader
## X-LoadOn-Merchant: true
## X-LoadOn-Slash: /buyemall

Localization.deDE.lua
Localization.enUS.lua
Localization.esES.lua
Localization.frFR.lua
Localization.koKR.lua
Localization.ptBR.lua
Localization.ruRU.lua
Localization.zhCN.lua
Localization.zhTW.lua
BuyEmAll.lua
BuyEmAll.xml