## Interface: 50400
## Title: Grail |r|cff69ccf0Achievements|r
## Author: Scott M Harrison
## Notes: Provides achievement information to Grail
## Version: 011
## Dependencies: Grail
## LoadOnDemand: 1

Grail-Achievements.lua
