## Interface: 50200
## Title: Lib: MapData-1.0
## Notes: Static library of wow map data
## Version: 1.0.r131
## Author: kagaro
## X-Category: Library
## X-Website: http://www.curse.com/addons/wow/libmapdata-1-0
## X-Curse-Packaged-Version: r131
## X-Curse-Project-Name: LibMapData-1.0
## X-Curse-Project-ID: libmapdata-1-0
## X-Curse-Repository-ID: wow/libmapdata-1-0/mainline

Libs\LibStub\LibStub.lua
Libs\CallbackHandler-1.0\CallbackHandler-1.0.xml
library.lua