﻿## Interface: 50400
## Title: Altoholic_Guild
## Notes: Altoholic's Guild UI
## Author: Thaoky (EU-Marécages de Zangar)
## Version: 5.4.001
## Dependencies: Altoholic, DataStore, DataStore_Characters
## LoadOnDemand: 1
## X-Category: Interface Enhancements
## X-Curse-Packaged-Version: r139
## X-Curse-Project-Name: Altoholic
## X-Curse-Project-ID: altoholic
## X-Curse-Repository-ID: wow/altoholic/mainline

TabGuild.xml

Frames\GuildMembers.xml
Frames\GuildBank.xml
# Frames\GuildProfessions.xml
