## Interface: 50400
## Title: Lib: ItemUpgradeInfo-1.0
## Notes: Database of item upgrade IDs
## Author: eridius
## Version: 1.0.5
## X-Category: Library
## X-Curse-Packaged-Version: v1.0.5
## X-Curse-Project-Name: LibItemUpgradeInfo-1.0
## X-Curse-Project-ID: libitemupgradeinfo-1-0
## X-Curse-Repository-ID: wow/libitemupgradeinfo-1-0/mainline

LibItemUpgradeInfo-1.0.xml
