## Interface: 50400
## Version: 50400.1.1
## Author: Xemnosyst
## Title : Bitten's Utils
## Notes: General functions used in Bitten's addons.
## URL: http://www.curse.com/addons/wow/bittens-utils
## X-Curse-Packaged-Version: 50400.1.1
## X-Curse-Project-Name: Bitten's Utils
## X-Curse-Project-ID: bittens-utils
## X-Curse-Repository-ID: wow/bittens-utils/mainline
BittensUtils.xml