﻿## Interface: 50400
## Title: DataStore_Spells
## Notes: Stores information about character spells
## Author: Thaoky (EU-Marécages de Zangar)
## Version: 5.4.001
## Dependencies: DataStore
## OptionalDeps: Ace3
## SavedVariables: DataStore_SpellsDB
## X-Category: Interface Enhancements
## X-Embeds: Ace3
## X-Curse-Packaged-Version: r20
## X-Curse-Project-Name: DataStore_Spells
## X-Curse-Project-ID: datastore_spells
## X-Curse-Repository-ID: wow/datastore_spells/mainline

DataStore_Spells.lua
