## Interface: 50400
## Title: Lib: Dialog-1.0
## Notes: Replacement for the default UI's StaticPopup dialogs.
## Author: Torhal
## Version: r69-release
## LoadOnDemand: 1
## X-Date: 2014-05-03T09:42:42Z
## X-Category: Libraries
## X-License: All Rights Reserved
## X-Curse-Packaged-Version: r69-release
## X-Curse-Project-Name: LibDialog-1.0
## X-Curse-Project-ID: libdialog-1-0
## X-Curse-Repository-ID: wow/libdialog-1-0/mainline

LibStub\LibStub.lua
lib.xml
