------------------------------------------------------------------------
r21 | oscarucb | 2013-09-10 21:43:20 +0000 (Tue, 10 Sep 2013) | 1 line
Changed paths:
   A /tags/1.1.4 (from /trunk:20)

Tagging as 1.1.4
------------------------------------------------------------------------
r20 | oscarucb | 2013-09-10 21:42:06 +0000 (Tue, 10 Sep 2013) | 2 lines
Changed paths:
   M /trunk/CalendarKeyboardFixer.toc

toc update

------------------------------------------------------------------------
