## Interface: 50400
## Title: Grid2 |cd1ff7d0aRaidDebuffs|r
## Notes: Adds a Raid Boss debuff status.
## Notes-esES: Muestra los debuffs de Bosses de Raid en el Grid2.
## X-Curse-Packaged-Version: r720
## X-Curse-Project-Name: Grid2
## X-Curse-Project-ID: grid2
## X-Curse-Repository-ID: wow/grid2/mainline

## Dependencies: Grid2

## Version:r720
## X-Category: UnitFrame
## X-Website: http://wowace.com/projects/grid2/

Grid2RaidDebuffs.lua
