## Interface: 50400

## Title: The Low Down
## Notes: Never forget to scroll a chatframe to the bottom again!
## Author: Tekkub Stoutwrithe
## Version: 2.0.3.346
## X-Website: http://code.google.com/p/tekkub-wow/
## X-Email: tekkub-wow@googlegroups.com
## X-Category: Chat/Communication

TheLowDown.lua
