﻿## Interface: 50400
## Title: BugGrabber
## Notes: Grabs bugs for the bug sack.
## Author: Funkydude, Rabbit
## X-Credits: Rowne, Ramble, kergoth, ckknight, Fritti
## X-License: GPL v2 or later.
## X-Category: Development Tools
## SavedVariables: BugGrabberDB
## X-Curse-Packaged-Version: r198-release
## X-Curse-Project-Name: !BugGrabber
## X-Curse-Project-ID: bug-grabber
## X-Curse-Repository-ID: wow/bug-grabber/mainline

BugGrabber.lua
locales.lua

