﻿## Interface: 50400
## Title: Raid|cff7fff7fAchievement|r - Naxxramas
## Title-ruRU: Raid|cff7fff7fAchievement|r - Наксрамас
## Author: Shurshik
## Notes: RaidAchievement Naxxramas Module
## Notes-ruRU: Модуль RaidAchievement - Наксрамас
## Dependencies: RaidAchievement
## LoadOnDemand: 1
## SavedVariablesPerCharacter: nxraspisokon
RaidAchievement_Naxxramas.lua
RaidAchievement_Naxxramasbosses.lua
RaidAchievement_Naxxramas.xml