## Interface: 30100
## LoadOnDemand: 1
## Title: Lib: Guild-1.0
## Notes: Guild members
## Author: Kemayo
## Version: 1.0
## X-Category: Library
## OptionalDeps: LibStub, CallbackHandler-1.0
## X-License: LGPL v2.1
## X-Curse-Packaged-Version: r33
## X-Curse-Project-Name: LibGuild-1.0
## X-Curse-Project-ID: libguild-1-0
## X-Curse-Repository-ID: wow/libguild-1-0/mainline

LibStub\LibStub.lua
CallbackHandler-1.0\CallbackHandler-1.0.lua

LibGuild-1.0\lib.xml
