﻿## Interface: 50400
## Author: Shurshik
## Title: Raid|cff7fff7fAchievement|r_OldModules
## Notes: Raid|cff7fff7fAchievement|r_OldModules
## Dependencies: RaidAchievement
RaidAchievement_OldModules.lua
RaidAchievement_OldModules.xml