------------------------------------------------------------------------
r346 | kagaro | 2014-04-27 06:11:21 +0000 (Sun, 27 Apr 2014) | 1 line
Changed paths:
   A /tags/v20.8 (from /trunk:345)

GatherMate2_Data: Data update
------------------------------------------------------------------------
r341 | kagaro | 2014-03-30 06:09:18 +0000 (Sun, 30 Mar 2014) | 1 line
Changed paths:
   M /trunk/HerbalismData.lua
   M /trunk/MiningData.lua
   M /trunk/TreasureData.lua

GatherMate2_Data: Data update
------------------------------------------------------------------------
