## Interface: 50400
## Title: |cff00ff00TradeSkillMaster_ItemTracker|r
## Notes: Tracks inventory across multiple characters including bags, banks, guild banks, auctions, and mail.
## Author: Sapu94, Bart39
## Version: v2.0.7
## SavedVariables: TradeSkillMaster_ItemTrackerDB
## Dependency: TradeSkillMaster
## X-Curse-Packaged-Version: v2.0.7
## X-Curse-Project-Name: TradeSkillMaster_ItemTracker
## X-Curse-Project-ID: tradeskillmaster_itemtracker
## X-Curse-Repository-ID: wow/tradeskillmaster_itemtracker/mainline

Locale\enUS.lua
Locale\frFR.lua
Locale\deDE.lua
Locale\koKR.lua
Locale\esMX.lua
Locale\ruRU.lua
Locale\zhCN.lua
Locale\esES.lua
Locale\zhTW.lua
Locale\ptBR.lua

TradeSkillMaster_ItemTracker.lua
Modules\sync.lua
Modules\data.lua
Modules\config.lua